{
  "project_info": {
    "project_number": "289062324213",
    "project_id": "safecarwash-app",
    "storage_bucket": "safecarwash-app.appspot.com"
  },
  "client": [
    {
      "client_info": {
        "mobilesdk_app_id": "1:289062324213:android:e30d7ef2e3c9a1073802bc",
        "android_client_info": {
          "package_name": "com.kore.safecarwash"
        }
      },
      "oauth_client": [
        {
          "client_id": "289062324213-igm64el8rbe416pi2288j8u1cns86553.apps.googleusercontent.com",
          "client_type": 3
        }
      ],
      "api_key": [
        {
          "current_key": "AIzaSyDt_qiW5r9H-IWfeapkEpRW-YhaGHtOyC4"
        }
      ],
      "services": {
        "appinvite_service": {
          "other_platform_oauth_client": [
            {
              "client_id": "289062324213-igm64el8rbe416pi2288j8u1cns86553.apps.googleusercontent.com",
              "client_type": 3
            }
          ]
        }
      }
    }
  ],
  "configuration_version": "1"
}